<?xml version="1.0" encoding="UTF-8" standalone="no"?>
<!DOCTYPE svg PUBLIC "-//W3C//DTD SVG 1.1//EN"
 "http://www.w3.org/Graphics/SVG/1.1/DTD/svg11.dtd">
<!-- Generated by graphviz version 2.43.0 (0)
 -->
<!-- Title: xekhmac Pages: 1 -->
<svg width="300pt" height="260pt"
 viewBox="0.00 0.00 300.50 260.00" xmlns="http://www.w3.org/2000/svg" xmlns:xlink="http://www.w3.org/1999/xlink">
<g id="graph0" class="graph" transform="scale(1 1) rotate(0) translate(4 256)">
<title>xekhmac</title>
<polygon fill="white" stroke="transparent" points="-4,4 -4,-256 296.5,-256 296.5,4 -4,4"/>
<!-- sko -->
<g id="node1" class="node">
<title>sko</title>
<ellipse fill="none" stroke="black" cx="27" cy="-234" rx="27" ry="18"/>
<text text-anchor="middle" x="27" y="-230.3" font-family="Times,serif" font-size="14.00">sko</text>
</g>
<!-- dhsecret -->
<g id="node3" class="node">
<title>dhsecret</title>
<ellipse fill="none" stroke="black" cx="63" cy="-162" rx="51.19" ry="18"/>
<text text-anchor="middle" x="63" y="-158.3" font-family="Times,serif" font-size="14.00">dhsecret</text>
</g>
<!-- sko&#45;&gt;dhsecret -->
<g id="edge1" class="edge">
<title>sko&#45;&gt;dhsecret</title>
<path fill="none" stroke="black" d="M35.35,-216.76C39.54,-208.61 44.73,-198.53 49.47,-189.31"/>
<polygon fill="black" stroke="black" points="52.73,-190.62 54.19,-180.12 46.51,-187.42 52.73,-190.62"/>
</g>
<!-- pkd -->
<g id="node2" class="node">
<title>pkd</title>
<ellipse fill="none" stroke="black" cx="100" cy="-234" rx="27.9" ry="18"/>
<text text-anchor="middle" x="100" y="-230.3" font-family="Times,serif" font-size="14.00">pkd</text>
</g>
<!-- pkd&#45;&gt;dhsecret -->
<g id="edge2" class="edge">
<title>pkd&#45;&gt;dhsecret</title>
<path fill="none" stroke="black" d="M91.42,-216.76C87.06,-208.53 81.67,-198.32 76.75,-189.02"/>
<polygon fill="black" stroke="black" points="79.82,-187.33 72.05,-180.12 73.63,-190.6 79.82,-187.33"/>
</g>
<!-- KHMAC -->
<g id="node6" class="node">
<title>KHMAC</title>
<text text-anchor="middle" x="171" y="-86.3" font-family="Times,serif" font-size="14.00">KHMAC</text>
</g>
<!-- dhsecret&#45;&gt;KHMAC -->
<g id="edge3" class="edge">
<title>dhsecret&#45;&gt;KHMAC</title>
<path fill="none" stroke="black" d="M86.43,-145.81C103.56,-134.71 126.79,-119.65 144.58,-108.13"/>
</g>
<!-- nonce -->
<g id="node4" class="node">
<title>nonce</title>
<ellipse fill="none" stroke="black" cx="171" cy="-162" rx="38.19" ry="18"/>
<text text-anchor="middle" x="171" y="-158.3" font-family="Times,serif" font-size="14.00">nonce</text>
</g>
<!-- nonce&#45;&gt;KHMAC -->
<g id="edge4" class="edge">
<title>nonce&#45;&gt;KHMAC</title>
<path fill="none" stroke="black" d="M171,-143.7C171,-132.85 171,-118.92 171,-108.1"/>
</g>
<!-- addr -->
<g id="node5" class="node">
<title>addr</title>
<ellipse fill="none" stroke="black" cx="260" cy="-162" rx="32.49" ry="18"/>
<text text-anchor="middle" x="260" y="-158.3" font-family="Times,serif" font-size="14.00">addr</text>
</g>
<!-- addr&#45;&gt;KHMAC -->
<g id="edge5" class="edge">
<title>addr&#45;&gt;KHMAC</title>
<path fill="none" stroke="black" d="M241.99,-146.83C227.77,-135.65 207.87,-120 192.76,-108.11"/>
</g>
<!-- dpk -->
<g id="node7" class="node">
<title>dpk</title>
<ellipse fill="none" stroke="black" cx="212" cy="-18" rx="27.9" ry="18"/>
<text text-anchor="middle" x="212" y="-14.3" font-family="Times,serif" font-size="14.00">dpk</text>
</g>
<!-- KHMAC&#45;&gt;dpk -->
<g id="edge6" class="edge">
<title>KHMAC&#45;&gt;dpk</title>
<path fill="none" stroke="black" d="M181.13,-71.7C186.04,-63.32 192.03,-53.1 197.42,-43.9"/>
<polygon fill="black" stroke="black" points="200.51,-45.54 202.54,-35.14 194.47,-42 200.51,-45.54"/>
</g>
<!-- xku -->
<g id="node8" class="node">
<title>xku</title>
<ellipse fill="none" stroke="black" cx="253" cy="-90" rx="27.1" ry="18"/>
<text text-anchor="middle" x="253" y="-86.3" font-family="Times,serif" font-size="14.00">xku</text>
</g>
<!-- xku&#45;&gt;dpk -->
<g id="edge7" class="edge">
<title>xku&#45;&gt;dpk</title>
<path fill="none" stroke="black" d="M238.36,-64C234.58,-57.55 230.51,-50.6 226.73,-44.15"/>
<polygon fill="black" stroke="black" points="235.42,-65.9 243.49,-72.76 241.46,-62.37 235.42,-65.9"/>
<polygon fill="black" stroke="black" points="229.53,-42.01 221.46,-35.15 223.49,-45.55 229.53,-42.01"/>
</g>
</g>
</svg>
